module go-grpc

go 1.20

require (
	github.com/golang/protobuf v1.5.3 // indirect
	golang.org/x/net v0.13.0 // indirect
	golang.org/x/sys v0.10.0 // indirect
	golang.org/x/text v0.11.0 // indirect
	google.golang.org/genproto/googleapis/rpc v0.0.0-20230731193218-e0aa005b6bdf // indirect
	google.golang.org/grpc v1.57.0 // indirect
	google.golang.org/protobuf v1.31.0 // indirect
)
